Chapter 3 Data Wrangling and Summarizing | A Participatory Plant Breeding Toolkit in R and RStudio
…
In addition, if we also want to summarize every combination of variety plus location, we could do it easily this way.

means_by(mydata[,-c(2:5)], variety, location)

## # A tibble: 56 x 7
##    variety location    farmers_eval yield yield_first perc_mark_yield
##  * <chr>   <chr>              <dbl> <dbl>       <dbl>           <dbl>
##  1 Var. A  Castronuovo         2.23  452.       191.              0  
##  2 Var. A  Molise              3     744.         5.5            62.2
##  3 Var. A  Rotonda             3.06 3382.        65              90.6
##  4 Var. A  Sestola             2.8   967.       132.             26.0
##  5 Var. B  Castronuovo         1.92  288.       117.              0  
##  6 Var. B  Molise              3     775.         0              58.8
##  7 Var. B  Rotonda             3.16 3648        121.             82.0
##  8 Var. B  Sestola             2.12  790.       137.             27.1
##  9 Var. C  Castronuovo         1.66  259.        95.4            15.5
## 10 Var. C  Molise              3.14 1030.        22.3            64.2
## # ... with 46 more rows, and 1 more variable: mean_fruit_weight <dbl>
…
